{
  "version": "6.0",
  "nxVersion": "17.1.3",
  "deps": {
    "@angular/animations": "^17.0.0",
    "@angular/common": "^17.0.0",
    "@angular/compiler": "^17.0.0",
    "@angular/core": "^17.0.0",
    "@angular/forms": "^17.0.0",
    "@angular/platform-browser": "^17.0.0",
    "@angular/platform-browser-dynamic": "^17.0.0",
    "@angular/router": "^17.0.0",
    "rxjs": "~7.8.0",
    "tslib": "^2.3.0",
    "zone.js": "~0.14.2",
    "@angular-devkit/build-angular": "^17.0.2",
    "@angular-devkit/core": "^17.0.2",
    "@angular-devkit/schematics": "^17.0.2",
    "@angular/cli": "^17.0.2",
    "@angular/compiler-cli": "^17.0.0",
    "@nx/angular": "17.1.3",
    "@nx/workspace": "17.1.3",
    "@schematics/angular": "^17.0.2",
    "@types/jasmine": "~5.1.0",
    "jasmine-core": "~5.1.0",
    "karma": "~6.4.0",
    "karma-chrome-launcher": "~3.2.0",
    "karma-coverage": "~2.2.0",
    "karma-jasmine": "~5.1.0",
    "karma-jasmine-html-reporter": "~2.1.0",
    "nx": "17.1.3",
    "typescript": "~5.2.2"
  },
  "pathMappings": {},
  "nxJsonPlugins": [],
  "fileMap": {
    "nonProjectFiles": [],
    "projectFileMap": {
      "eshop-ex": [
        {
          "file": ".editorconfig",
          "hash": "6686520031028425313"
        },
        {
          "file": ".gitignore",
          "hash": "13044518069027839699"
        },
        {
          "file": ".nx/cache/d/daemon.log",
          "hash": "16428001838494327099"
        },
        {
          "file": ".nx/cache/d/server-process.json",
          "hash": "11052202810733068137"
        },
        {
          "file": ".nx/cache/file-map.json",
          "hash": "3102481426088295430"
        },
        {
          "file": ".nx/cache/lockfile.hash",
          "hash": "3715099612989006161"
        },
        {
          "file": ".nx/cache/parsed-lock-file.json",
          "hash": "7605127197366800121"
        },
        {
          "file": ".nx/cache/project-graph.json",
          "hash": "6563198711490352185"
        },
        {
          "file": ".vscode/extensions.json",
          "hash": "12343942279124280405"
        },
        {
          "file": ".vscode/launch.json",
          "hash": "17038929134016848735"
        },
        {
          "file": ".vscode/tasks.json",
          "hash": "5336636969995539451"
        },
        {
          "file": "README.md",
          "hash": "17938042706332910323"
        },
        {
          "file": "nx.json",
          "hash": "3391550810888883991"
        },
        {
          "file": "package-lock.json",
          "hash": "15957810900737845746"
        },
        {
          "file": "package.json",
          "hash": "16177480241307896467",
          "deps": [
            "npm:@angular/animations",
            "npm:@angular/common",
            "npm:@angular/compiler",
            "npm:@angular/core",
            "npm:@angular/forms",
            "npm:@angular/platform-browser",
            "npm:@angular/platform-browser-dynamic",
            "npm:@angular/router",
            "npm:rxjs",
            "npm:tslib",
            "npm:zone.js",
            "npm:@angular-devkit/build-angular",
            "npm:@angular-devkit/core",
            "npm:@angular-devkit/schematics",
            "npm:@angular/cli",
            "npm:@angular/compiler-cli",
            "npm:@nx/angular",
            "npm:@nx/workspace",
            "npm:@schematics/angular",
            "npm:@types/jasmine",
            "npm:jasmine-core",
            "npm:karma",
            "npm:karma-chrome-launcher",
            "npm:karma-coverage",
            "npm:karma-jasmine",
            "npm:karma-jasmine-html-reporter",
            "npm:nx",
            "npm:typescript"
          ]
        },
        {
          "file": "project.json",
          "hash": "16684868020053852430"
        },
        {
          "file": "src/app/app-routing.module.ts",
          "hash": "6250625392482207240",
          "deps": [
            "npm:@angular/core",
            "npm:@angular/router"
          ]
        },
        {
          "file": "src/app/app.component.css",
          "hash": "3244421341483603138"
        },
        {
          "file": "src/app/app.component.html",
          "hash": "6880513722212066549"
        },
        {
          "file": "src/app/app.component.spec.ts",
          "hash": "300575521606827805",
          "deps": [
            "npm:@angular/core",
            "npm:@angular/router"
          ]
        },
        {
          "file": "src/app/app.component.ts",
          "hash": "4280534042571962505",
          "deps": [
            "npm:@angular/core"
          ]
        },
        {
          "file": "src/app/app.module.ts",
          "hash": "1341940988703171679",
          "deps": [
            "npm:@angular/core",
            "npm:@angular/platform-browser"
          ]
        },
        {
          "file": "src/assets/.gitkeep",
          "hash": "3244421341483603138"
        },
        {
          "file": "src/favicon.ico",
          "hash": "3988961587069885523"
        },
        {
          "file": "src/index.html",
          "hash": "4792727193993932026"
        },
        {
          "file": "src/main.ts",
          "hash": "12246588107753938993",
          "deps": [
            "npm:@angular/platform-browser-dynamic"
          ]
        },
        {
          "file": "src/styles.css",
          "hash": "5195668842064076916"
        },
        {
          "file": "tsconfig.app.json",
          "hash": "17337579397915052279"
        },
        {
          "file": "tsconfig.json",
          "hash": "8074232012119176151"
        },
        {
          "file": "tsconfig.spec.json",
          "hash": "15575553540147145788"
        }
      ]
    }
  }
}
